2064 65510
1681 93232
1484 45990
1740 76289
1561 61695
1544 83220
1970 58819
1615 50796
1642 68454
2029 51735
2040 93295
1604 49022
1646 92769
1920 52614
1564 81831
2094 69381
2143 61457
1534 87245
2003 77936
1672 81833
1475 82630
2062 94183
1926 80208
2099 69219
1958 46766
2107 58527
2113 52588
1576 79438
1968 85721
2040 66010
1924 63914
2118 90357
1574 58266
1912 75986
1716 74244
1533 68139
1872 66372
1949 46754
1933 56387
1570 65575
1843 49462
1512 57393
2022 86814
1549 59344
1663 67955
1834 84820
1843 84386
1874 48244
1591 49375
1839 79630
1594 85784
1929 48185
1665 90597
1608 92887
1940 85718
1849 81434
1515 94522
1625 54312
1987 71053
1526 59264
1460 62417
2096 57107
2017 77789
1740 48362
1666 93007
1865 55955
1975 58266
1839 71489
1934 45265
1642 71787
1535 70224
2110 72581
1454 90981
1873 51087
1472 74048
1810 65448
1989 84562
1489 73457
2027 75752
1544 94320
2146 51252
1913 65408
1826 65130
2081 52488
1676 55079
1904 55954
1646 92921
1551 66871
1915 54962
1710 82383
1610 65436
1978 70778
1774 83260
1727 56679
1602 47646
2050 75754
1697 52004
1892 52255
2007 57283
1693 48132
2048 67394
1626 92769
1968 80978
1812 56031
1905 47822
1457 65511
1610 88382
1474 54081
1717 90862
2040 52758
1688 73697
1495 54699
1989 61102
2113 61681
1755 49471
1459 45908
1648 61697
1601 83583
2077 74344
2036 46675
1471 82152
2114 80681
1789 90225
2073 88763
2061 72848
1522 60767
1721 83278
1928 85130
1559 66570
1725 90746
2072 88011
2098 69895
2056 87716
1805 49196
2055 90322
1901 73368
1573 79200
2103 81673
1806 70815
1850 64514
1649 63536
1576 82108
1919 62560
1572 57934
1456 89730
2084 49236
1884 94860
1983 76839
1782 53344
2026 78957
1976 92594
1679 47898
1576 67933
1734 48239
1997 91045
1718 69556
1850 62182
1547 60371
1528 72825
1912 88582
1664 83479
2075 51637
1869 48561
1840 60115
1738 63913
1628 66246
2114 53451
1869 52233
1893 93732
1506 48436
1879 45908
1601 57934
1454 84535
1896 67646
2123 58511
1825 48317
2041 88237
1775 67220
2104 49910
1601 49160
1870 51863
1646 87480
1713 57276
1606 60479
1871 78058
1947 93351
1804 57589
2031 46770
1794 66538
1609 57924
1612 74575
1646 65524
2125 59392
1607 78541
1776 62832
1512 48299
1472 63625
1583 81226
1845 55206
1592 51397
1990 87561
1647 86167
1476 80844
1662 91344
1745 48554
1994 56421
1662 48031
1738 89631
2148 51270
1658 84270
1655 92618
2083 86813
1582 65203
1869 63040
2056 49452
1690 79459
1636 71261
1796 86629
1781 93360
2074 64793
2049 89150
1770 70574
1540 66465
1675 58740
1553 62272
2063 76925
1812 71213
1692 60343
1906 70246
1978 74233
2120 83566
1823 87201
1735 58550
2144 61555
1770 82993
1456 91333
1667 85873
2082 70270
2021 55596
1721 60185
1758 73071
1870 84530
1566 85080
1609 84667
1516 91372
1649 74306
1718 47773
1902 53484
1731 73919
2073 47989
1671 73640
1506 57499
1457 93853
1681 89842
1705 57584
1731 64934
1652 78245
1781 73993
1821 89509
1857 47629
1570 92220
1977 58226
1929 92148
2109 92905
1670 68918
1675 75666
1541 62123
1961 57087
2000 84974
2014 49815
2006 75729
1650 48814
1486 56303
1498 50474
1511 70469
1924 65133
1483 75130
1456 68767
2010 70779
2073 79350
1961 53343
1746 56116
1611 48168
1679 52422
1716 76991
2119 77748
1923 80769
1712 83525
1892 72602
1807 93358
1823 82500
1959 50150
1543 72837
1627 64788
2010 56751
2132 56242
1923 72187
1613 51219
2137 74174
1821 64754
1792 79437
1688 85901
1722 75493
2090 75171
1749 91725
1815 76689
1704 78551
1850 69882
1682 57192
1754 70245
1497 91366
2017 66661
1577 76353
1872 88852
1513 67183
1924 60724
1856 83922
2007 79677
1466 68740
1643 83750
2076 94124
1640 54219
1643 91046
1728 57132
1942 64109
1743 76471
2012 74961
1461 47585
1658 83199
1496 71268
1644 68324
2005 72428
1476 73203
1488 73262
1578 69387
1746 64323
1850 61786
1536 87080
1836 90839
1654 58566
2021 74916
1883 94335
1848 71763
1588 55726
1653 58371
1504 45696
1606 63221
1601 56452
1865 91734
1462 67590
1947 91145
1667 46921
1500 54718
1874 68303
1491 91011
1569 81593
1499 62801
1470 85733
1980 64429
1666 46213
1785 71544
2030 90001
1523 72183
2080 54358
1518 65611
1956 67473
2097 72503
1745 68227
1711 86047
1852 84290
1755 72951
2058 46192
1502 75718
1660 55644
1790 79222
1651 69103
1804 66809
2138 66702
1946 77623
1710 85619
1557 50252
2147 75723
1907 54219
2071 93830
1983 48042
1576 54239
1767 48974
1678 83010
2011 68462
1680 63838
1755 55796
1676 51361
2099 89193
1824 76632
1757 86574
1547 62282
1562 48706
1784 77158
1742 63495
1530 84261
2140 45539
2116 60581
1571 50734
1673 64811
1876 69244
1923 92309
1842 87771
1731 86004
1869 53307
1636 79521
1846 54214
2030 71048
1659 59223
1712 92147
1675 61701
1534 83608
1567 82268
2099 75771
2059 80879
1684 88070
1704 79497
1954 47565
1459 60775
1744 91161
1757 54314
2091 92504
1701 45039
1998 68392
1484 79987
1845 58354
1654 62069
1529 47068
1872 67902
1700 89232
1709 63332
1738 47685
1564 86702
1469 77590
1709 60628
2061 84807
2111 50542
2150 59046
1957 50195
2044 65510
1640 77235
1529 72520
1504 54247
1886 69130
1663 89572
1770 59505
1781 83954
1769 53924
2038 53065
1985 65744
1936 65145
1912 69708
1834 88897
1468 59679
1762 93719
1866 60415
1657 74120
1530 46263
1882 73586
2115 74396
1727 90567
1709 71293
1577 73846
2048 53145
2089 45732
1695 51078
1663 77885
1718 79752
1667 82362
1527 49201
1657 87201
1804 77495
1993 81907
2018 64955
1887 91838
2149 88871
2102 74322
1904 49675
2080 67623
1855 77321
1796 57612
1631 83525
2145 70542
1778 86085
1968 55514
1883 59852
1496 62648
1520 46822
1792 46053
1498 80207
1977 54322
1915 86122
2084 85665
1702 53513
1691 73682
1518 88715
