2031 68562
1935 51074
1893 61186
1664 70346
1885 52946
1850 57761
2069 93667
1938 65847
2104 89359
1602 71102
1698 89511
1638 51939
2036 74476
1759 77430
1980 70695
1774 47751
1845 64674
2111 53896
1768 68820
1758 73350
1512 62848
1668 62738
1488 79751
1794 65558
1571 56990
1891 87154
2100 72545
2127 78912
2031 59336
1784 46765
1622 46329
1760 58323
2117 83838
1614 67335
1794 78624
1645 86306
1955 68331
1848 59646
2081 49640
1991 87117
1978 93642
1929 51114
1904 85768
1641 83403
1536 71339
1973 68751
2066 59019
1830 67649
1466 78830
1692 85742
2110 87788
1746 51432
1788 90905
1461 52032
1782 68027
1950 70144
1573 77774
2130 71318
2069 74144
1878 67539
1997 87299
2119 90068
1607 78419
1979 79672
1887 52079
1771 88107
2099 49318
1936 82469
1647 55612
1510 74647
1806 65120
1637 52696
1495 92821
1549 85135
1690 52152
1677 77025
1740 92972
1835 78860
1732 82383
1724 86586
1572 73450
1896 47581
1636 70177
1592 85886
1961 47558
1776 66415
1931 87097
2085 48153
1862 69021
1542 77495
2030 72867
1651 56590
1826 85136
2021 63907
1629 63350
1472 47361
1743 48750
1628 90042
1906 82754
1557 60768
