1453 45419
1458 45619
1470 45968
1476 47093
1480 47485
1482 47574
1487 47703
1489 50905
1490 50931
1491 51201
1492 51523
1495 51956
1502 52188
1506 52623
1519 52694
1522 53256
1530 53757
1551 54517
1558 54778
1568 55632
1598 56484
1606 56607
1621 57202
1624 58366
1631 59029
1639 59435
1660 60403
1667 60639
1670 61206
1673 61207
1681 61697
1682 62067
1683 63480
1684 63528
1689 64664
1692 64726
1695 65254
1702 65283
1705 65362
1729 65365
1733 65513
1739 66170
1740 66368
1746 66692
1751 67100
1752 67760
1755 68817
1772 68853
1774 69384
1778 70153
1780 70540
1794 71437
1799 71594
1806 71954
1822 72345
1835 72899
1844 73766
1845 74010
1851 74482
1852 75314
1857 75444
1864 77161
1868 77866
1873 78745
1875 78985
1879 79248
1893 79650
1904 80115
1906 80393
1908 81429
1914 82983
1923 83260
1932 84705
1936 85199
1938 85367
1939 85447
1962 85459
1971 85721
1976 86229
1981 86460
2001 87039
2008 87290
2011 87337
2017 87608
2023 88030
2028 88916
2030 89058
2036 90013
2048 90314
2053 90442
2059 91667
2063 91714
2065 91905
2066 92798
2077 92995
2090 93421
2099 93803
2115 94064
2123 94611
2126 94998
