40 562 8
0 3
0 4
0 6
0 7
0 8
0 9
0 10
0 14
0 16
0 17
0 19
0 20
0 22
0 24
0 27
0 28
0 29
0 31
0 32
0 33
0 36
0 37
0 38
0 39
1 2
1 3
1 5
1 6
1 7
1 8
1 9
1 10
1 11
1 12
1 13
1 14
1 16
1 17
1 19
1 20
1 21
1 22
1 23
1 25
1 26
1 27
1 28
1 29
1 30
1 31
1 32
1 34
1 36
1 37
1 38
1 39
2 3
2 6
2 7
2 8
2 9
2 10
2 11
2 13
2 14
2 15
2 16
2 17
2 19
2 21
2 22
2 23
2 24
2 25
2 26
2 27
2 30
2 31
2 33
2 34
2 36
2 37
2 38
3 4
3 5
3 6
3 7
3 8
3 9
3 10
3 11
3 12
3 14
3 15
3 16
3 17
3 18
3 20
3 21
3 22
3 23
3 24
3 25
3 27
3 28
3 31
3 34
3 35
3 36
3 37
3 39
4 6
4 7
4 9
4 11
4 12
4 13
4 15
4 16
4 17
4 18
4 20
4 21
4 22
4 23
4 24
4 25
4 26
4 27
4 28
4 29
4 30
4 31
4 33
4 35
4 37
4 38
5 6
5 7
5 9
5 12
5 13
5 14
5 15
5 19
5 20
5 21
5 22
5 23
5 24
5 28
5 31
5 32
5 33
5 34
5 35
5 37
5 38
6 7
6 9
6 10
6 11
6 13
6 15
6 16
6 19
6 21
6 22
6 23
6 24
6 27
6 28
6 29
6 30
6 31
6 32
6 33
6 34
6 35
6 36
6 37
6 38
6 39
7 8
7 10
7 11
7 12
7 13
7 15
7 18
7 20
7 21
7 22
7 23
7 24
7 25
7 26
7 27
7 28
7 30
7 31
7 32
7 33
7 34
7 35
7 38
7 39
8 10
8 11
8 12
8 13
8 14
8 15
8 16
8 18
8 21
8 24
8 25
8 26
8 27
8 29
8 32
8 33
8 34
8 36
8 38
8 39
9 10
9 13
9 14
9 17
9 18
9 20
9 21
9 22
9 23
9 24
9 25
9 26
9 27
9 28
9 30
9 31
9 32
9 33
9 35
9 36
9 38
9 39
10 11
10 12
10 14
10 15
10 18
10 19
10 20
10 21
10 23
10 24
10 26
10 27
10 28
10 29
10 30
10 31
10 32
10 33
10 34
10 36
10 37
10 38
10 39
11 12
11 13
11 15
11 16
11 17
11 18
11 19
11 20
11 21
11 22
11 24
11 25
11 27
11 28
11 30
11 31
11 32
11 35
11 37
11 39
12 14
12 15
12 16
12 17
12 18
12 22
12 23
12 25
12 26
12 27
12 29
12 30
12 31
12 33
12 36
12 37
12 39
13 15
13 17
13 18
13 19
13 20
13 21
13 23
13 24
13 27
13 30
13 31
13 33
13 34
13 35
13 36
13 38
13 39
14 15
14 17
14 18
14 19
14 20
14 22
14 23
14 24
14 25
14 26
14 28
14 29
14 30
14 32
14 33
14 34
14 35
14 37
14 38
14 39
15 17
15 18
15 20
15 23
15 25
15 26
15 27
15 29
15 30
15 31
15 32
15 34
15 35
15 37
15 38
15 39
16 17
16 18
16 21
16 22
16 24
16 27
16 28
16 29
16 32
16 33
16 34
16 35
16 36
16 37
16 39
17 18
17 19
17 21
17 22
17 23
17 24
17 27
17 29
17 30
17 32
17 33
17 35
17 36
17 37
17 38
17 39
18 19
18 20
18 22
18 23
18 24
18 26
18 27
18 28
18 31
18 32
18 33
18 34
18 36
18 37
18 38
19 20
19 21
19 24
19 25
19 27
19 29
19 30
19 31
19 32
19 33
19 34
19 35
19 36
19 38
19 39
20 21
20 23
20 24
20 26
20 27
20 28
20 31
20 32
20 35
20 36
20 37
20 38
20 39
21 22
21 23
21 24
21 25
21 27
21 29
21 30
21 31
21 32
21 33
21 35
21 36
21 37
21 38
21 39
22 25
22 29
22 31
22 32
22 34
22 35
22 36
22 39
23 24
23 28
23 29
23 30
23 31
23 32
23 33
23 34
23 35
23 36
23 37
23 38
23 39
24 25
24 26
24 27
24 29
24 30
24 31
24 32
24 33
24 34
24 36
24 37
25 26
25 27
25 28
25 29
25 30
25 32
25 33
25 34
25 35
25 36
25 38
25 39
26 27
26 28
26 29
26 30
26 31
26 33
26 34
26 35
26 36
26 37
26 39
27 29
27 30
27 32
27 35
27 36
27 37
27 39
28 30
28 31
28 33
28 34
28 35
28 36
28 38
28 39
29 30
29 31
29 32
29 33
29 34
29 35
29 36
29 38
30 31
30 32
30 34
30 35
30 37
30 38
31 33
31 34
31 36
31 37
31 39
32 33
32 34
32 35
32 36
32 38
32 39
33 35
33 36
33 38
34 35
34 37
34 38
34 39
35 37
35 38
35 39
36 37
36 38
36 39
37 38
37 39
38 39
