20 53 5
0 1
0 5
0 6
0 7
0 13
0 16
1 2
1 4
1 8
1 13
1 14
2 4
2 8
2 13
2 14
2 16
2 17
2 18
3 9
3 12
3 14
3 18
4 6
4 13
4 14
5 11
5 13
5 17
6 11
6 19
7 13
7 16
7 18
8 9
8 10
8 17
8 19
9 15
9 18
10 11
10 14
10 16
11 15
11 18
12 13
12 15
13 14
14 16
14 17
14 18
15 16
17 18
17 19
