1512 88948
1919 62475
1754 74787
1797 71005
1756 74152
2057 50662
1826 68394
1506 89044
1694 78305
1632 81556
2077 49323
2025 50847
1892 64169
1654 80867
1659 80828
2072 49681
1740 75798
2070 49947
2011 52891
1886 66418
1945 59259
1652 81178
2091 49191
1995 54345
1696 78111
1470 92816
1847 67074
2100 48812
1804 70388
1572 84102
1603 83024
1777 71928
1974 56828
1811 69096
2004 54243
1959 58085
1487 92092
1545 87438
1906 62960
1606 81844
2013 52183
1479 92536
1706 77713
1937 61210
1845 68247
1718 77508
1970 57924
1663 80373
1773 72425
1808 70037
1862 67070
1874 66724
1681 78830
1574 83455
1468 93956
1493 90406
2004 53615
1779 71753
1977 55512
2129 45642
1759 72507
2014 51936
2004 52924
1800 70874
1562 86025
1955 59029
1604 82616
1736 77409
1680 78937
2115 46267
1605 81945
1739 77056
2111 46680
1981 55338
1590 83418
1536 87467
2063 50300
1930 61666
2035 50698
2120 45815
1937 60148
2141 45155
1994 55257
1643 81322
2109 47509
1502 89486
1725 77489
1917 62843
1752 74852
1499 89986
1491 91605
2015 51934
1973 57860
1665 79257
1691 78326
1570 85532
1518 88764
1958 58563
1689 78803
1546 86993
